# Blender v2.79 (sub 0) OBJ File: 'CatCage.blend'
# www.blender.org
mtllib CatCage.mtl
o Cylinder
v 0.453457 0.899878 0.073285
v 0.453457 0.017084 0.073285
v 0.453457 0.899878 0.097265
v 0.453457 0.017084 0.097265
v 0.469810 0.899878 0.109255
v 0.469810 0.017084 0.109255
v 0.486162 0.899878 0.097265
v 0.486162 0.017084 0.097265
v 0.486162 0.899878 0.073285
v 0.486162 0.017084 0.073285
v 0.469810 0.899878 0.061296
v 0.469810 0.017084 0.061296
v 0.453457 0.899878 0.263381
v 0.453457 0.017084 0.263381
v 0.453457 0.899878 0.287361
v 0.453457 0.017084 0.287361
v 0.469810 0.899878 0.299350
v 0.469810 0.017084 0.299350
v 0.486162 0.899878 0.287361
v 0.486162 0.017084 0.287361
v 0.486162 0.899878 0.263381
v 0.486162 0.017084 0.263381
v 0.469810 0.899878 0.251391
v 0.469810 0.017084 0.251391
v 0.453457 0.899878 0.443636
v 0.453457 0.017084 0.443636
v 0.453457 0.899878 0.467616
v 0.453457 0.017084 0.467616
v 0.469810 0.899878 0.479605
v 0.469810 0.017084 0.479605
v 0.486162 0.899878 0.467616
v 0.486162 0.017084 0.467616
v 0.486162 0.899878 0.443636
v 0.486162 0.017084 0.443636
v 0.469810 0.899878 0.431646
v 0.469810 0.017084 0.431646
v 0.526407 -0.020059 -0.593573
v 0.526407 -0.020059 0.616031
v -0.417711 -0.020059 0.616031
v -0.417711 -0.020059 -0.593573
v 0.526407 0.926359 -0.593572
v 0.526406 0.926359 0.616031
v -0.417711 0.926359 0.616031
v -0.417711 0.926359 -0.593573
v 0.526407 -0.020059 -0.514913
v 0.526407 -0.020059 0.537371
v -0.417711 -0.020059 0.537371
v -0.417711 -0.020059 -0.514913
v 0.526407 0.926359 -0.514912
v 0.526407 0.926359 0.537372
v -0.417711 0.926359 0.537371
v -0.417711 0.926359 -0.514913
v 0.526407 0.030232 -0.593573
v 0.526407 0.876068 -0.593572
v 0.526407 0.030232 0.616031
v 0.526407 0.876068 0.616031
v -0.417711 0.030232 0.616031
v -0.417711 0.876068 0.616031
v -0.417711 0.030232 -0.593573
v -0.417711 0.876068 -0.593573
v -0.417711 0.876068 0.537371
v -0.417711 0.030232 0.537371
v -0.417711 0.876068 -0.514913
v -0.417711 0.030232 -0.514913
v 0.526407 0.876068 -0.514912
v 0.526407 0.030232 -0.514913
v 0.526407 0.876068 0.537372
v 0.526407 0.030232 0.537372
v -0.366152 0.876068 -0.514912
v -0.366152 0.030232 -0.514913
v -0.366152 0.876068 0.537372
v -0.366152 0.030232 0.537371
vt 0.000000 0.000000
vt 0.000000 0.000000
vt 0.000000 0.000000
vt 0.000000 0.000000
vt 0.000000 0.000000
vt 0.000000 0.000000
vt 0.043175 -0.000513
vt 0.043177 0.999230
vt 0.022130 0.999230
vt 0.022127 -0.000513
vt 0.064223 -0.000513
vt 0.064225 0.999230
vt 0.000000 0.000000
vt 0.000000 0.000000
vt 0.000000 0.000000
vt 0.000000 0.000000
vt 0.000000 0.000000
vt 0.000000 0.000000
vt 0.085271 -0.000513
vt 0.085272 0.999230
vt 0.106319 -0.000513
vt 0.106319 0.999230
vt 0.127367 -0.000513
vt 0.127367 0.999230
vt 0.001083 0.999230
vt 0.001079 -0.000513
vt 0.000000 0.000000
vt 0.000000 0.000000
vt 0.000000 0.000000
vt 0.000000 0.000000
vt 0.000000 0.000000
vt 0.000000 0.000000
vt 0.042544 0.000121
vt 0.042201 0.999864
vt 0.021154 0.999857
vt 0.021496 0.000114
vt 0.063592 0.000128
vt 0.063249 0.999872
vt 0.000000 0.000000
vt 0.000000 0.000000
vt 0.000000 0.000000
vt 0.000000 0.000000
vt 0.000000 0.000000
vt 0.000000 0.000000
vt 0.084640 0.000135
vt 0.084296 0.999879
vt 0.105688 0.000143
vt 0.105343 0.999886
vt 0.126736 0.000150
vt 0.126391 0.999893
vt 0.000107 0.999850
vt 0.000448 0.000107
vt 0.000000 0.000000
vt 0.000000 0.000000
vt 0.000000 0.000000
vt 0.000000 0.000000
vt 0.000000 0.000000
vt 0.000000 0.000000
vt 0.042520 -0.000682
vt 0.042523 0.999062
vt 0.021476 0.999062
vt 0.021472 -0.000682
vt 0.063568 -0.000682
vt 0.063571 0.999062
vt 0.000000 0.000000
vt 0.000000 0.000000
vt 0.000000 0.000000
vt 0.000000 0.000000
vt 0.000000 0.000000
vt 0.000000 0.000000
vt 0.084616 -0.000682
vt 0.084618 0.999062
vt 0.105665 -0.000682
vt 0.105665 0.999062
vt 0.126713 -0.000682
vt 0.126713 0.999062
vt 0.000429 0.999062
vt 0.000424 -0.000682
vt 1.126162 1.379908
vt 1.126162 1.358178
vt 1.457390 1.358178
vt 1.457390 1.379908
vt 2.125963 1.379910
vt 1.794736 1.379909
vt 1.794736 1.358178
vt 2.125963 1.358179
vt 0.322969 1.970147
vt 0.322969 2.023273
vt 0.258567 2.023274
vt 0.258567 1.970147
vt 1.776811 1.026950
vt 1.794737 1.026950
vt 1.776810 1.358178
vt 1.776809 1.670612
vt 1.794735 1.670612
vt 1.794735 1.692343
vt 1.776809 1.692343
vt 1.475316 2.023569
vt 1.457390 2.023569
vt 1.457391 1.692342
vt 1.475316 1.692342
vt 1.776810 1.379909
vt 0.323007 1.970253
vt 0.323007 2.023380
vt 0.258603 2.023380
vt 0.258603 1.970253
vt 1.979199 0.115498
vt 1.979199 0.168625
vt 1.117632 0.168626
vt 1.117632 0.115499
vt 2.125962 1.692343
vt 2.125962 1.670613
vt 1.126162 1.692342
vt 1.126162 1.670612
vt 1.457391 1.670612
vt 1.979198 0.115725
vt 1.979198 0.168852
vt 1.117628 0.168856
vt 1.117628 0.115729
vt 0.696101 2.029492
vt 0.382828 2.029492
vt 0.382828 1.692043
vt 0.696100 1.692042
vt 0.323077 1.970574
vt 0.323077 2.023701
vt 0.258673 2.023702
vt 0.258673 1.970574
vt 1.101235 0.109668
vt 1.994780 0.109668
vt 1.994780 0.174071
vt 1.101235 0.174072
vt 1.475316 1.379908
vt 1.475317 1.670611
vt 0.000000 0.000000
vt 0.000000 0.000000
vt 0.000000 0.000000
vt 0.000000 0.000000
vt 1.475316 1.358178
vt 1.794735 2.023568
vt 1.776809 2.023568
vt 1.457391 1.026950
vt 1.475316 1.026950
vt 0.322766 1.970288
vt 0.322766 2.023415
vt 0.258362 2.023415
vt 0.258362 1.970288
vt 1.101251 0.109688
vt 1.994794 0.109684
vt 1.994794 0.174086
vt 1.101251 0.174091
vt 0.696100 1.367141
vt 0.382828 1.367141
vt 0.045378 1.692043
vt 0.045378 1.367141
vt 1.033550 1.367141
vt 1.033550 1.692042
vt 0.382827 1.029691
vt 0.696100 1.029691
vn 0.0000 -1.0000 0.0000
vn -0.5913 0.0000 -0.8065
vn -1.0000 -0.0000 0.0000
vn 0.0000 1.0000 0.0000
vn -0.5913 -0.0000 0.8065
vn 0.5913 -0.0000 0.8065
vn 1.0000 -0.0000 0.0000
vn 0.5913 0.0000 -0.8065
vn -0.0000 -0.0000 1.0000
vn 0.0000 -0.0000 -1.0000
usemtl Material
s off
f 12/1/1 10/2/1 8/3/1 6/4/1 4/5/1 2/6/1
f 2/7/2 1/8/2 11/9/2 12/10/2
f 4/11/3 3/12/3 1/8/3 2/7/3
f 9/13/4 11/14/4 1/15/4 3/16/4 5/17/4 7/18/4
f 6/19/5 5/20/5 3/12/5 4/11/5
f 8/21/6 7/22/6 5/20/6 6/19/6
f 10/23/7 9/24/7 7/22/7 8/21/7
f 12/10/8 11/9/8 9/25/8 10/26/8
f 24/27/1 22/28/1 20/29/1 18/30/1 16/31/1 14/32/1
f 14/33/2 13/34/2 23/35/2 24/36/2
f 16/37/3 15/38/3 13/34/3 14/33/3
f 21/39/4 23/40/4 13/41/4 15/42/4 17/43/4 19/44/4
f 18/45/5 17/46/5 15/38/5 16/37/5
f 20/47/6 19/48/6 17/46/6 18/45/6
f 22/49/7 21/50/7 19/48/7 20/47/7
f 24/36/8 23/35/8 21/51/8 22/52/8
f 36/53/1 34/54/1 32/55/1 30/56/1 28/57/1 26/58/1
f 26/59/2 25/60/2 35/61/2 36/62/2
f 28/63/3 27/64/3 25/60/3 26/59/3
f 33/65/4 35/66/4 25/67/4 27/68/4 29/69/4 31/70/4
f 30/71/5 29/72/5 27/64/5 28/63/5
f 32/73/6 31/74/6 29/72/6 30/71/6
f 34/75/7 33/76/7 31/74/7 32/73/7
f 36/62/8 35/61/8 33/77/8 34/78/8
f 46/79/1 38/80/1 39/81/1 47/82/1
f 50/83/4 51/84/4 43/85/4 42/86/4
f 67/87/7 50/88/7 42/89/7 56/90/7
f 56/91/9 42/92/9 43/85/9 58/93/9
f 63/94/3 52/95/3 44/96/3 60/97/3
f 53/98/10 37/99/10 40/100/10 59/101/10
f 58/93/3 43/85/3 51/84/3 61/102/3
f 61/102/3 51/84/3 52/95/3 63/94/3
f 54/103/7 41/104/7 49/105/7 65/106/7
f 65/107/7 49/108/7 50/109/7 67/110/7
f 41/111/4 44/96/4 52/95/4 49/112/4
f 49/112/4 52/95/4 51/84/4 50/83/4
f 37/113/1 45/114/1 48/115/1 40/100/1
f 45/114/1 46/79/1 47/82/1 48/115/1
f 45/116/7 66/117/7 68/118/7 46/119/7
f 65/120/1 67/121/1 71/122/1 69/123/1
f 37/124/7 53/125/7 66/126/7 45/127/7
f 53/128/7 54/129/7 65/130/7 66/131/7
f 47/82/3 62/132/3 64/133/3 48/115/3
f 62/132/3 61/102/3 63/94/3 64/133/3
f 39/134/3 57/135/3 62/136/3 47/137/3
f 57/138/3 58/93/3 61/102/3 62/132/3
f 41/139/10 54/140/10 60/97/10 44/96/10
f 54/140/10 53/98/10 59/101/10 60/97/10
f 48/115/3 64/133/3 59/101/3 40/100/3
f 64/133/3 63/94/3 60/97/3 59/101/3
f 38/141/9 55/142/9 57/138/9 39/81/9
f 55/142/9 56/91/9 58/93/9 57/138/9
f 46/143/7 68/144/7 55/145/7 38/146/7
f 68/147/7 67/148/7 56/149/7 55/150/7
f 70/151/7 69/123/7 71/122/7 72/152/7
f 67/153/10 68/154/10 72/152/10 71/122/10
f 66/155/9 65/156/9 69/123/9 70/151/9
f 68/157/4 66/158/4 70/151/4 72/152/4
