%YAML 1.1
%TAG !u! tag:unity3d.com,2011:
--- !u!114 &11400000
MonoBehaviour:
  m_ObjectHideFlags: 0
  m_CorrespondingSourceObject: {fileID: 0}
  m_PrefabInstance: {fileID: 0}
  m_PrefabAsset: {fileID: 0}
  m_GameObject: {fileID: 0}
  m_Enabled: 1
  m_EditorHideFlags: 0
  m_Script: {fileID: 11500000, guid: e40452d2dca874e4794f6d0cd11018ce, type: 3}
  m_Name: Female
  m_EditorClassIdentifier: 
  name: Female
  animator: {fileID: 22100000, guid: b0690365067f77348a580915a0fa1387, type: 2}
  heightToFoor: 1
  foodOffset: 0
